             precision    recall  f1-score   support

          0       0.96      0.84      0.90       224
          1       0.88      0.98      0.93       286
          2       0.89      0.76      0.82       277
          3       0.87      0.80      0.83       275
          4       0.89      0.81      0.85       234
          5       0.89      0.79      0.84       212
          6       0.92      0.90      0.91       260
          7       0.97      0.74      0.84       266
          8       0.67      0.85      0.75       240
          9       0.63      0.94      0.76       226

avg / total       0.86      0.84      0.84      2500
