
Launching script, importing modules ...

Modules imported ...
I detected that I am running on zamok (durty hack), so I increase the cache_size !
Using a cache size for the SVM classifier of 8000 ...
Reading train/test data from ../data/ ...
(It might take a few seconds)
Loading the MVA Kaggle database... (5000 train, 10000 test) ...
There is 5000 train data point (28 x 28 gray-scaled image).
    - shape of train: (5000, 784)
    - shape of target: (5000,)
Set of target labels: {0, 1, 2, 3, 4, 5, 6, 7, 8, 9}
Histogram of labels:
[468, 553, 532, 532, 486, 432, 530, 482, 490, 495]
There is 10000 test data point (28 x 28 gray-scaled image).
    - shape of test: (10000, 784)
No pre-processing the data, not using scale() ...
train.mean = 0.152103388776 and train.std = 0.321346617977
test.mean = 0.154039993886 and test.std = 0.323682670817
Using clever features: HoG directional features ...
Parameters: orientations = 8 , pixels_per_cell = (14, 14) , cells_per_block = (1, 1) , visualise = True
apply_each_image with hog_one_image : n = 5000 and w = 28 and h = 28
  Keeping the raw pixels as features also (in the beginning of the vector) ...
  Shape of the result : (5000, 1568)
apply_each_image with hog_one_image : n = 10000 and w = 28 and h = 28
  Keeping the raw pixels as features also (in the beginning of the vector) ...
  Shape of the result : (10000, 1568)
    - shape of train_all: (5000, 1568)
    - shape of test_all: (10000, 1568)
Using all the data... It will take a while... Be patient !
    - shape of train: (5000, 1568)
    - shape of target: (5000,)
    - shape of test: (10000, 1568)
Post-processing the data, calling scale() on the transformed data: centering so mu = 0, scaling so std = 1 ...
Using these parameters for the SVM classifier: {'cache_size': 8000, 'C': 500.0, 'coef0': 0.0, 'kernel': 'linear', 'gamma': 0.005, 'degree': 7}


1. Learn on 2/3 and evaluate the performance on 1/3 of the train data ...
As for real train/test, we have twice as much as train as we have of test.
Classification report for svm_model SVC(C=500.0, cache_size=8000, class_weight=None, coef0=0.0,
  decision_function_shape=None, degree=7, gamma=0.005, kernel='linear',
  max_iter=-1, probability=False, random_state=None, shrinking=True,
  tol=0.001, verbose=False):
             precision    recall  f1-score   support

          0       0.92      0.98      0.95       308
          1       0.96      0.98      0.97       369
          2       0.91      0.89      0.90       361
          3       0.89      0.90      0.90       366
          4       0.90      0.86      0.88       322
          5       0.90      0.88      0.89       294
          6       0.94      0.92      0.93       369
          7       0.90      0.89      0.89       306
          8       0.88      0.87      0.88       305
          9       0.82      0.83      0.83       334

avg / total       0.90      0.90      0.90      3334


Checking the score on 1/3 of the train data : 90.28% ...

Trying an grid search, GridSearchCV with 3-fold cross validation ...
Exploring these parameters:
[{'kernel': ['linear'], 'C': [1, 10, 100, 1000]}, {'kernel': ['rbf'], 'C': [1, 10, 100, 1000], 'gamma': ['auto', 0.001, 0.0001]}, {'C': [1, 10, 100, 1000], 'kernel': ['poly'], 'degree': [2, 3, 5, 7, 9, 11, 15]}]

- Tuning hyper-parameters for precision ... It will take a LOT OF TIME ...
Fitting 4 folds for each of 44 candidates, totalling 176 fits
[CV] C=1, kernel=linear ..............................................
[CV] C=1, kernel=linear ..............................................
[CV] C=1, kernel=linear ..............................................
[CV] C=1, kernel=linear ..............................................
[CV] C=10, kernel=linear .............................................
[CV] C=10, kernel=linear .............................................
[CV] C=10, kernel=linear .............................................
[CV] C=10, kernel=linear .............................................
[CV] ..................................... C=1, kernel=linear -  12.2s
[CV] C=100, kernel=linear ............................................
[CV] .................................... C=10, kernel=linear -  12.3s
[CV] C=100, kernel=linear ............................................
[CV] ..................................... C=1, kernel=linear -  12.6s
[CV] C=100, kernel=linear ............................................
[CV] ..................................... C=1, kernel=linear -  12.6s
[CV] C=100, kernel=linear ............................................
[CV] .................................... C=10, kernel=linear -  12.5s
[CV] C=1000, kernel=linear ...........................................
[CV] .................................... C=10, kernel=linear -  12.7s
[CV] .................................... C=10, kernel=linear -  12.6s
[CV] C=1000, kernel=linear ...........................................
[CV] C=1000, kernel=linear ...........................................
[CV] ..................................... C=1, kernel=linear -  13.1s
[CV] C=1000, kernel=linear ...........................................
[CV] .................................. C=1000, kernel=linear -  11.4s
[CV] C=1, kernel=rbf, gamma=auto .....................................
[CV] ................................... C=100, kernel=linear -  12.6s
[CV] ................................... C=100, kernel=linear -  13.2s
[CV] C=1, kernel=rbf, gamma=auto .....................................
[CV] C=1, kernel=rbf, gamma=auto .....................................
[CV] ................................... C=100, kernel=linear -  12.7s
[CV] C=1, kernel=rbf, gamma=auto .....................................
[CV] .................................. C=1000, kernel=linear -  12.6s
[CV] C=1, kernel=rbf, gamma=0.001 ....................................
[CV] ................................... C=100, kernel=linear -  13.0s
[CV] C=1, kernel=rbf, gamma=0.001 ....................................
[CV] .................................. C=1000, kernel=linear -  13.9s
[CV] C=1, kernel=rbf, gamma=0.001 ....................................
[CV] .................................. C=1000, kernel=linear -  13.7s
[CV] C=1, kernel=rbf, gamma=0.001 ....................................
[CV] ............................ C=1, kernel=rbf, gamma=auto -  17.9s
[CV] C=1, kernel=rbf, gamma=0.0001 ...................................
[CV] ............................ C=1, kernel=rbf, gamma=auto -  19.8s
[CV] C=1, kernel=rbf, gamma=0.0001 ...................................
[CV] ............................ C=1, kernel=rbf, gamma=auto -  19.5s
[CV] C=1, kernel=rbf, gamma=0.0001 ...................................
[CV] ........................... C=1, kernel=rbf, gamma=0.001 -  20.2s
[CV] C=1, kernel=rbf, gamma=0.0001 ...................................
[CV] ............................ C=1, kernel=rbf, gamma=auto -  20.9s
[CV] C=10, kernel=rbf, gamma=auto ....................................
[CV] ........................... C=1, kernel=rbf, gamma=0.001 -  21.2s
[CV] C=10, kernel=rbf, gamma=auto ....................................
[CV] ........................... C=1, kernel=rbf, gamma=0.001 -  20.4s
[CV] C=10, kernel=rbf, gamma=auto ....................................
[CV] ........................... C=1, kernel=rbf, gamma=0.001 -  21.9s
[CV] C=10, kernel=rbf, gamma=auto ....................................
[CV] ........................... C=10, kernel=rbf, gamma=auto -  17.3s
[CV] C=10, kernel=rbf, gamma=0.001 ...................................
[CV] ........................... C=10, kernel=rbf, gamma=auto -  17.4s
[CV] C=10, kernel=rbf, gamma=0.001 ...................................
[CV] ........................... C=10, kernel=rbf, gamma=auto -  18.0s
[CV] C=10, kernel=rbf, gamma=0.001 ...................................
[CV] ........................... C=10, kernel=rbf, gamma=auto -  18.0s
[CV] C=10, kernel=rbf, gamma=0.001 ...................................
[CV] .......................... C=1, kernel=rbf, gamma=0.0001 -  23.5s
[CV] C=10, kernel=rbf, gamma=0.0001 ..................................
[CV] .......................... C=1, kernel=rbf, gamma=0.0001 -  26.8s
[CV] C=10, kernel=rbf, gamma=0.0001 ..................................
[CV] .......................... C=1, kernel=rbf, gamma=0.0001 -  25.9s
[CV] C=10, kernel=rbf, gamma=0.0001 ..................................
[CV] .......................... C=1, kernel=rbf, gamma=0.0001 -  27.3s
[CV] C=10, kernel=rbf, gamma=0.0001 ..................................
[CV] ......................... C=10, kernel=rbf, gamma=0.0001 -  15.1s
[CV] C=100, kernel=rbf, gamma=auto ...................................
[CV] .......................... C=10, kernel=rbf, gamma=0.001 -  19.8s
[CV] C=100, kernel=rbf, gamma=auto ...................................
[CV] .......................... C=10, kernel=rbf, gamma=0.001 -  20.5s
[CV] C=100, kernel=rbf, gamma=auto ...................................
[CV] ......................... C=10, kernel=rbf, gamma=0.0001 -  14.1s
[CV] ......................... C=10, kernel=rbf, gamma=0.0001 -  14.9s
[CV] C=100, kernel=rbf, gamma=auto ...................................
[CV] C=100, kernel=rbf, gamma=0.001 ..................................
[CV] .......................... C=10, kernel=rbf, gamma=0.001 -  21.0s
[CV] C=100, kernel=rbf, gamma=0.001 ..................................
[CV] .......................... C=10, kernel=rbf, gamma=0.001 -  20.3s
[CV] C=100, kernel=rbf, gamma=0.001 ..................................
[CV] ......................... C=10, kernel=rbf, gamma=0.0001 -  14.9s
[CV] C=100, kernel=rbf, gamma=0.001 ..................................
[CV] .......................... C=100, kernel=rbf, gamma=auto -  17.9s
[CV] C=100, kernel=rbf, gamma=0.0001 .................................
[CV] .......................... C=100, kernel=rbf, gamma=auto -  15.0s
[CV] C=100, kernel=rbf, gamma=0.0001 .................................
[CV] .......................... C=100, kernel=rbf, gamma=auto -  18.4s
[CV] C=100, kernel=rbf, gamma=0.0001 .................................
[CV] .......................... C=100, kernel=rbf, gamma=auto -  18.2s
[CV] C=100, kernel=rbf, gamma=0.0001 .................................
[CV] ......................... C=100, kernel=rbf, gamma=0.001 -  17.8s
[CV] C=1000, kernel=rbf, gamma=auto ..................................
[CV] ......................... C=100, kernel=rbf, gamma=0.001 -  19.8s
[CV] C=1000, kernel=rbf, gamma=auto ..................................
[CV] ......................... C=100, kernel=rbf, gamma=0.001 -  21.1s
[CV] C=1000, kernel=rbf, gamma=auto ..................................
[CV] ......................... C=100, kernel=rbf, gamma=0.001 -  21.5s
[CV] C=1000, kernel=rbf, gamma=auto ..................................
[CV] ........................ C=100, kernel=rbf, gamma=0.0001 -  12.9s
[CV] C=1000, kernel=rbf, gamma=0.001 .................................
[CV] ........................ C=100, kernel=rbf, gamma=0.0001 -  14.3s
[CV] C=1000, kernel=rbf, gamma=0.001 .................................
[CV] ........................ C=100, kernel=rbf, gamma=0.0001 -  13.6s
[CV] C=1000, kernel=rbf, gamma=0.001 .................................
[CV] ........................ C=100, kernel=rbf, gamma=0.0001 -  14.3s
[CV] C=1000, kernel=rbf, gamma=0.001 .................................
[CV] ......................... C=1000, kernel=rbf, gamma=auto -  15.7s
[CV] C=1000, kernel=rbf, gamma=0.0001 ................................
[CV] ......................... C=1000, kernel=rbf, gamma=auto -  17.3s
[CV] C=1000, kernel=rbf, gamma=0.0001 ................................
[CV] ......................... C=1000, kernel=rbf, gamma=auto -  17.6s
[CV] C=1000, kernel=rbf, gamma=0.0001 ................................
[CV] ......................... C=1000, kernel=rbf, gamma=auto -  17.8s
[CV] C=1000, kernel=rbf, gamma=0.0001 ................................
[CV] ........................ C=1000, kernel=rbf, gamma=0.001 -  19.9s
[CV] C=1, degree=2, kernel=poly ......................................
[CV] ....................... C=1000, kernel=rbf, gamma=0.0001 -  13.8s
[CV] C=1, degree=2, kernel=poly ......................................
[CV] ........................ C=1000, kernel=rbf, gamma=0.001 -  19.4s
[CV] C=1, degree=2, kernel=poly ......................................
[CV] ........................ C=1000, kernel=rbf, gamma=0.001 -  20.1s
[CV] C=1, degree=2, kernel=poly ......................................
[CV] ....................... C=1000, kernel=rbf, gamma=0.0001 -  13.5s
[CV] C=1, degree=3, kernel=poly ......................................
[CV] ....................... C=1000, kernel=rbf, gamma=0.0001 -  13.2s
[CV] C=1, degree=3, kernel=poly ......................................
[CV] ........................ C=1000, kernel=rbf, gamma=0.001 -  20.9s
[CV] C=1, degree=3, kernel=poly ......................................
[CV] ....................... C=1000, kernel=rbf, gamma=0.0001 -  14.1s
[CV] C=1, degree=3, kernel=poly ......................................
[CV] ............................. C=1, degree=2, kernel=poly -  17.8s
[CV] C=1, degree=5, kernel=poly ......................................
[CV] ............................. C=1, degree=2, kernel=poly -  17.8s
[CV] C=1, degree=5, kernel=poly ......................................
[CV] ............................. C=1, degree=2, kernel=poly -  17.5s
[CV] C=1, degree=5, kernel=poly ......................................
[CV] ............................. C=1, degree=2, kernel=poly -  18.1s
[CV] C=1, degree=5, kernel=poly ......................................
[CV] ............................. C=1, degree=3, kernel=poly -  19.0s
[CV] C=1, degree=7, kernel=poly ......................................
[CV] ............................. C=1, degree=3, kernel=poly -  19.4s
[CV] C=1, degree=7, kernel=poly ......................................
[CV] ............................. C=1, degree=3, kernel=poly -  20.3s
[CV] C=1, degree=7, kernel=poly ......................................
[CV] ............................. C=1, degree=3, kernel=poly -  19.3s
[CV] C=1, degree=7, kernel=poly ......................................
[CV] ............................. C=1, degree=5, kernel=poly -  21.1s
[CV] C=1, degree=9, kernel=poly ......................................
[CV] ............................. C=1, degree=5, kernel=poly -  22.0s
[CV] C=1, degree=9, kernel=poly ......................................
[CV] ............................. C=1, degree=5, kernel=poly -  22.1s
[CV] C=1, degree=9, kernel=poly ......................................
[CV] ............................. C=1, degree=5, kernel=poly -  23.5s
[CV] C=1, degree=9, kernel=poly ......................................
[CV] ............................. C=1, degree=7, kernel=poly -  24.2s
[CV] C=1, degree=11, kernel=poly .....................................
[CV] ............................. C=1, degree=7, kernel=poly -  26.8s
[CV] C=1, degree=11, kernel=poly .....................................
[CV] ............................. C=1, degree=7, kernel=poly -  26.5s
[CV] C=1, degree=11, kernel=poly .....................................
[CV] ............................. C=1, degree=7, kernel=poly -  27.5s
[CV] C=1, degree=11, kernel=poly .....................................
[CV] ............................. C=1, degree=9, kernel=poly -  29.7s
[CV] C=1, degree=15, kernel=poly .....................................
[CV] ............................. C=1, degree=9, kernel=poly -  30.4s
[CV] C=1, degree=15, kernel=poly .....................................
[CV] ............................. C=1, degree=9, kernel=poly -  30.5s
[CV] C=1, degree=15, kernel=poly .....................................
[CV] ............................. C=1, degree=9, kernel=poly -  31.8s
[CV] C=1, degree=15, kernel=poly .....................................
[CV] ............................ C=1, degree=11, kernel=poly -  33.6s
[CV] C=10, degree=2, kernel=poly .....................................
[CV] ............................ C=1, degree=11, kernel=poly -  35.4s
[CV] C=10, degree=2, kernel=poly .....................................
[CV] ............................ C=1, degree=11, kernel=poly -  33.4s
[CV] C=10, degree=2, kernel=poly .....................................
[CV] ............................ C=1, degree=11, kernel=poly -  35.7s
[CV] C=10, degree=2, kernel=poly .....................................
[CV] ............................ C=10, degree=2, kernel=poly -  14.2s
[CV] C=10, degree=3, kernel=poly .....................................
[CV] ............................ C=10, degree=2, kernel=poly -  14.9s
[CV] C=10, degree=3, kernel=poly .....................................
[CV] ............................ C=10, degree=2, kernel=poly -  14.8s
[CV] C=10, degree=3, kernel=poly .....................................
[CV] ............................ C=10, degree=2, kernel=poly -  15.1s
[CV] C=10, degree=3, kernel=poly .....................................
[CV] ............................ C=1, degree=15, kernel=poly -  41.1s
[CV] C=10, degree=5, kernel=poly .....................................
[CV] ............................ C=1, degree=15, kernel=poly -  38.5s
[CV] C=10, degree=5, kernel=poly .....................................
[CV] ............................ C=1, degree=15, kernel=poly -  40.0s
[CV] C=10, degree=5, kernel=poly .....................................
[CV] ............................ C=1, degree=15, kernel=poly -  40.7s
[CV] C=10, degree=5, kernel=poly .....................................
[CV] ............................ C=10, degree=3, kernel=poly -  17.6s
[CV] C=10, degree=7, kernel=poly .....................................
[CV] ............................ C=10, degree=3, kernel=poly -  14.9s
[CV] C=10, degree=7, kernel=poly .....................................
[CV] ............................ C=10, degree=3, kernel=poly -  17.9s
[CV] C=10, degree=7, kernel=poly .....................................
[CV] ............................ C=10, degree=3, kernel=poly -  18.5s
[CV] C=10, degree=7, kernel=poly .....................................
[CV] ............................ C=10, degree=5, kernel=poly -  20.6s
[CV] C=10, degree=9, kernel=poly .....................................
[CV] ............................ C=10, degree=5, kernel=poly -  19.9s
[CV] C=10, degree=9, kernel=poly .....................................
[CV] ............................ C=10, degree=5, kernel=poly -  20.4s
[CV] C=10, degree=9, kernel=poly .....................................
[CV] ............................ C=10, degree=5, kernel=poly -  20.9s
[CV] C=10, degree=9, kernel=poly .....................................
[CV] ............................ C=10, degree=7, kernel=poly -  25.8s
[CV] C=10, degree=11, kernel=poly ....................................
[CV] ............................ C=10, degree=7, kernel=poly -  27.3s
[CV] C=10, degree=11, kernel=poly ....................................
[CV] ............................ C=10, degree=7, kernel=poly -  23.8s
[CV] C=10, degree=11, kernel=poly ....................................
[CV] ............................ C=10, degree=7, kernel=poly -  27.9s
[CV] C=10, degree=11, kernel=poly ....................................
[CV] ............................ C=10, degree=9, kernel=poly -  28.4s
[CV] C=10, degree=15, kernel=poly ....................................
[CV] ............................ C=10, degree=9, kernel=poly -  31.5s
[CV] C=10, degree=15, kernel=poly ....................................
[CV] ............................ C=10, degree=9, kernel=poly -  33.3s
[CV] C=10, degree=15, kernel=poly ....................................
[CV] ............................ C=10, degree=9, kernel=poly -  32.3s
[CV] C=10, degree=15, kernel=poly ....................................
[CV] ........................... C=10, degree=11, kernel=poly -  33.8s
[CV] C=100, degree=2, kernel=poly ....................................
[CV] ........................... C=10, degree=11, kernel=poly -  32.5s
[CV] C=100, degree=2, kernel=poly ....................................
[CV] ........................... C=10, degree=11, kernel=poly -  35.9s
[CV] C=100, degree=2, kernel=poly ....................................
[CV] ........................... C=10, degree=11, kernel=poly -  36.6s
[CV] C=100, degree=2, kernel=poly ....................................
[CV] ........................... C=100, degree=2, kernel=poly -  14.0s
[CV] C=100, degree=3, kernel=poly ....................................
[CV] ........................... C=100, degree=2, kernel=poly -  14.2s
[CV] C=100, degree=3, kernel=poly ....................................
[CV] ........................... C=100, degree=2, kernel=poly -  13.9s
[CV] C=100, degree=3, kernel=poly ....................................
[CV] ........................... C=100, degree=2, kernel=poly -  14.4s
[CV] C=100, degree=3, kernel=poly ....................................
[CV] ........................... C=10, degree=15, kernel=poly -  38.6s
[CV] C=100, degree=5, kernel=poly ....................................
[CV] ........................... C=10, degree=15, kernel=poly -  40.5s
[CV] C=100, degree=5, kernel=poly ....................................
[CV] ........................... C=10, degree=15, kernel=poly -  40.4s
[CV] C=100, degree=5, kernel=poly ....................................
[CV] ........................... C=100, degree=3, kernel=poly -  17.7s
[CV] C=100, degree=5, kernel=poly ....................................
[CV] ........................... C=100, degree=3, kernel=poly -  18.9s
[CV] C=100, degree=7, kernel=poly ....................................
[CV] ........................... C=10, degree=15, kernel=poly -  42.1s
[CV] C=100, degree=7, kernel=poly ....................................
[CV] ........................... C=100, degree=3, kernel=poly -  17.4s
[CV] C=100, degree=7, kernel=poly ....................................
[CV] ........................... C=100, degree=3, kernel=poly -  16.6s
[CV] C=100, degree=7, kernel=poly ....................................
[CV] ........................... C=100, degree=5, kernel=poly -  20.1s
[CV] C=100, degree=9, kernel=poly ....................................
[CV] ........................... C=100, degree=5, kernel=poly -  20.8s
[CV] C=100, degree=9, kernel=poly ....................................
[CV] ........................... C=100, degree=5, kernel=poly -  20.8s
[CV] C=100, degree=9, kernel=poly ....................................
[CV] ........................... C=100, degree=5, kernel=poly -  20.6s
[CV] C=100, degree=9, kernel=poly ....................................
[CV] ........................... C=100, degree=7, kernel=poly -  23.8s
[CV] C=100, degree=11, kernel=poly ...................................
[CV] ........................... C=100, degree=7, kernel=poly -  25.2s
[CV] C=100, degree=11, kernel=poly ...................................
[CV] ........................... C=100, degree=7, kernel=poly -  25.4s
[CV] C=100, degree=11, kernel=poly ...................................
[CV] ........................... C=100, degree=7, kernel=poly -  23.8s
[CV] C=100, degree=11, kernel=poly ...................................
[CV] ........................... C=100, degree=9, kernel=poly -  27.4s
[CV] C=100, degree=15, kernel=poly ...................................
[CV] ........................... C=100, degree=9, kernel=poly -  28.5s
[CV] C=100, degree=15, kernel=poly ...................................
[CV] ........................... C=100, degree=9, kernel=poly -  28.0s
[CV] C=100, degree=15, kernel=poly ...................................
[CV] ........................... C=100, degree=9, kernel=poly -  31.0s
[CV] C=100, degree=15, kernel=poly ...................................
[CV] .......................... C=100, degree=11, kernel=poly -  32.3s
[CV] C=1000, degree=2, kernel=poly ...................................
[CV] .......................... C=100, degree=11, kernel=poly -  34.4s
[CV] C=1000, degree=2, kernel=poly ...................................
[CV] .......................... C=100, degree=11, kernel=poly -  33.6s
[CV] C=1000, degree=2, kernel=poly ...................................
[CV] .......................... C=100, degree=11, kernel=poly -  34.5s
[CV] C=1000, degree=2, kernel=poly ...................................
[CV] .......................... C=1000, degree=2, kernel=poly -  13.8s
[CV] C=1000, degree=3, kernel=poly ...................................
[CV] .......................... C=1000, degree=2, kernel=poly -  15.5s
[CV] C=1000, degree=3, kernel=poly ...................................
[CV] .......................... C=1000, degree=2, kernel=poly -  15.3s
[CV] C=1000, degree=3, kernel=poly ...................................
[CV] .......................... C=100, degree=15, kernel=poly -  36.6s
[CV] C=1000, degree=3, kernel=poly ...................................
[CV] .......................... C=100, degree=15, kernel=poly -  38.6s
[CV] C=1000, degree=5, kernel=poly ...................................
[CV] .......................... C=1000, degree=2, kernel=poly -  16.6s
[CV] C=1000, degree=5, kernel=poly ...................................
[CV] .......................... C=100, degree=15, kernel=poly -  41.1s
[CV] C=1000, degree=5, kernel=poly ...................................
[CV] .......................... C=100, degree=15, kernel=poly -  37.4s
[CV] C=1000, degree=5, kernel=poly ...................................
[CV] .......................... C=1000, degree=3, kernel=poly -  16.1s
[CV] C=1000, degree=7, kernel=poly ...................................
[CV] .......................... C=1000, degree=3, kernel=poly -  16.3s
[CV] C=1000, degree=7, kernel=poly ...................................
[CV] .......................... C=1000, degree=3, kernel=poly -  19.1s
[CV] C=1000, degree=7, kernel=poly ...................................
[CV] .......................... C=1000, degree=3, kernel=poly -  18.4s
[CV] C=1000, degree=7, kernel=poly ...................................
[CV] .......................... C=1000, degree=5, kernel=poly -  18.6s
[CV] C=1000, degree=9, kernel=poly ...................................
[CV] .......................... C=1000, degree=5, kernel=poly -  20.5s
[CV] C=1000, degree=9, kernel=poly ...................................
[CV] .......................... C=1000, degree=5, kernel=poly -  21.5s
[CV] C=1000, degree=9, kernel=poly ...................................
[CV] .......................... C=1000, degree=5, kernel=poly -  22.0s
[CV] C=1000, degree=9, kernel=poly ...................................
[CV] .......................... C=1000, degree=7, kernel=poly -  26.2s
[CV] C=1000, degree=11, kernel=poly ..................................
[CV] .......................... C=1000, degree=7, kernel=poly -  17.8s
[CV] C=1000, degree=11, kernel=poly ..................................
[CV] .......................... C=1000, degree=7, kernel=poly -  23.7s
[CV] C=1000, degree=11, kernel=poly ..................................
[CV] .......................... C=1000, degree=7, kernel=poly -  26.4s
[CV] C=1000, degree=11, kernel=poly ..................................
[CV] .......................... C=1000, degree=9, kernel=poly -  26.6s
[CV] C=1000, degree=15, kernel=poly ..................................
[CV] .......................... C=1000, degree=9, kernel=poly -  28.7s
[CV] C=1000, degree=15, kernel=poly ..................................
[CV] .......................... C=1000, degree=9, kernel=poly -  35.3s
[CV] C=1000, degree=15, kernel=poly ..................................
[CV] ......................... C=1000, degree=11, kernel=poly -  25.8s
[CV] C=1000, degree=15, kernel=poly ..................................
[CV] .......................... C=1000, degree=9, kernel=poly -  32.9s
[CV] ......................... C=1000, degree=11, kernel=poly -  28.7s
[CV] ......................... C=1000, degree=11, kernel=poly -  31.9s
[CV] ......................... C=1000, degree=11, kernel=poly -  30.5s
[CV] ......................... C=1000, degree=15, kernel=poly -  25.0s
[CV] ......................... C=1000, degree=15, kernel=poly -  22.8s
[CV] ......................... C=1000, degree=15, kernel=poly -  17.1s
[CV] ......................... C=1000, degree=15, kernel=poly -  18.1s
Best parameters set found on development set:

{'C': 10, 'kernel': 'rbf', 'gamma': 0.001}
Grid scores on development set:

0.896 (+/- 0.018) for {'C': 1, 'kernel': 'linear'}
0.896 (+/- 0.018) for {'C': 10, 'kernel': 'linear'}
0.896 (+/- 0.018) for {'C': 100, 'kernel': 'linear'}
0.896 (+/- 0.018) for {'C': 1000, 'kernel': 'linear'}
0.918 (+/- 0.020) for {'C': 1, 'kernel': 'rbf', 'gamma': 'auto'}
0.921 (+/- 0.015) for {'C': 1, 'kernel': 'rbf', 'gamma': 0.001}
0.891 (+/- 0.015) for {'C': 1, 'kernel': 'rbf', 'gamma': 0.0001}
0.913 (+/- 0.006) for {'C': 10, 'kernel': 'rbf', 'gamma': 'auto'}
0.922 (+/- 0.011) for {'C': 10, 'kernel': 'rbf', 'gamma': 0.001}
0.908 (+/- 0.021) for {'C': 10, 'kernel': 'rbf', 'gamma': 0.0001}
0.913 (+/- 0.005) for {'C': 100, 'kernel': 'rbf', 'gamma': 'auto'}
0.922 (+/- 0.011) for {'C': 100, 'kernel': 'rbf', 'gamma': 0.001}
0.904 (+/- 0.021) for {'C': 100, 'kernel': 'rbf', 'gamma': 0.0001}
0.913 (+/- 0.005) for {'C': 1000, 'kernel': 'rbf', 'gamma': 'auto'}
0.922 (+/- 0.011) for {'C': 1000, 'kernel': 'rbf', 'gamma': 0.001}
0.905 (+/- 0.020) for {'C': 1000, 'kernel': 'rbf', 'gamma': 0.0001}
0.912 (+/- 0.032) for {'C': 1, 'degree': 2, 'kernel': 'poly'}
0.915 (+/- 0.027) for {'C': 1, 'degree': 3, 'kernel': 'poly'}
0.903 (+/- 0.026) for {'C': 1, 'degree': 5, 'kernel': 'poly'}
0.870 (+/- 0.024) for {'C': 1, 'degree': 7, 'kernel': 'poly'}
0.853 (+/- 0.019) for {'C': 1, 'degree': 9, 'kernel': 'poly'}
0.846 (+/- 0.011) for {'C': 1, 'degree': 11, 'kernel': 'poly'}
0.874 (+/- 0.025) for {'C': 1, 'degree': 15, 'kernel': 'poly'}
0.909 (+/- 0.011) for {'C': 10, 'degree': 2, 'kernel': 'poly'}
0.918 (+/- 0.009) for {'C': 10, 'degree': 3, 'kernel': 'poly'}
0.916 (+/- 0.012) for {'C': 10, 'degree': 5, 'kernel': 'poly'}
0.897 (+/- 0.012) for {'C': 10, 'degree': 7, 'kernel': 'poly'}
0.873 (+/- 0.018) for {'C': 10, 'degree': 9, 'kernel': 'poly'}
0.854 (+/- 0.017) for {'C': 10, 'degree': 11, 'kernel': 'poly'}
0.846 (+/- 0.033) for {'C': 10, 'degree': 15, 'kernel': 'poly'}
0.910 (+/- 0.011) for {'C': 100, 'degree': 2, 'kernel': 'poly'}
0.918 (+/- 0.009) for {'C': 100, 'degree': 3, 'kernel': 'poly'}
0.915 (+/- 0.009) for {'C': 100, 'degree': 5, 'kernel': 'poly'}
0.903 (+/- 0.008) for {'C': 100, 'degree': 7, 'kernel': 'poly'}
0.873 (+/- 0.017) for {'C': 100, 'degree': 9, 'kernel': 'poly'}
0.853 (+/- 0.023) for {'C': 100, 'degree': 11, 'kernel': 'poly'}
0.840 (+/- 0.031) for {'C': 100, 'degree': 15, 'kernel': 'poly'}
0.910 (+/- 0.011) for {'C': 1000, 'degree': 2, 'kernel': 'poly'}
0.918 (+/- 0.009) for {'C': 1000, 'degree': 3, 'kernel': 'poly'}
0.915 (+/- 0.009) for {'C': 1000, 'degree': 5, 'kernel': 'poly'}
0.903 (+/- 0.008) for {'C': 1000, 'degree': 7, 'kernel': 'poly'}
0.873 (+/- 0.017) for {'C': 1000, 'degree': 9, 'kernel': 'poly'}
0.855 (+/- 0.021) for {'C': 1000, 'degree': 11, 'kernel': 'poly'}
0.835 (+/- 0.027) for {'C': 1000, 'degree': 15, 'kernel': 'poly'}

Detailed classification report:

The model is trained on the full development set.
The scores are computed on the full evaluation set.

             precision    recall  f1-score   support

          0       0.95      0.98      0.97       308
          1       0.98      0.98      0.98       369
          2       0.95      0.92      0.93       361
          3       0.92      0.94      0.93       366
          4       0.93      0.90      0.91       322
          5       0.93      0.93      0.93       294
          6       0.95      0.95      0.95       369
          7       0.93      0.92      0.93       306
          8       0.92      0.91      0.92       305
          9       0.88      0.90      0.89       334

avg / total       0.93      0.93      0.93      3334


- Tuning hyper-parameters for recall ... It will take a LOT OF TIME ...
Fitting 4 folds for each of 44 candidates, totalling 176 fits
[CV] C=1, kernel=linear ..............................................
[CV] C=1, kernel=linear ..............................................
[CV] C=1, kernel=linear ..............................................
[CV] C=1, kernel=linear ..............................................
[CV] C=10, kernel=linear .............................................
[CV] C=10, kernel=linear .............................................
[CV] C=10, kernel=linear .............................................
[CV] C=10, kernel=linear .............................................
[CV] .................................... C=10, kernel=linear -  11.6s
[CV] C=100, kernel=linear ............................................
[CV] ..................................... C=1, kernel=linear -  12.0s
[CV] C=100, kernel=linear ............................................
[CV] ..................................... C=1, kernel=linear -  12.4s
[CV] C=100, kernel=linear ............................................
[CV] ..................................... C=1, kernel=linear -  12.7s
[CV] C=100, kernel=linear ............................................
[CV] .................................... C=10, kernel=linear -  12.7s
[CV] C=1000, kernel=linear ...........................................
[CV] ..................................... C=1, kernel=linear -  12.9s
[CV] .................................... C=10, kernel=linear -  12.8s
[CV] C=1000, kernel=linear ...........................................
[CV] C=1000, kernel=linear ...........................................
[CV] .................................... C=10, kernel=linear -  12.8s
[CV] C=1000, kernel=linear ...........................................
[CV] ................................... C=100, kernel=linear -  10.4s
[CV] C=1, kernel=rbf, gamma=auto .....................................
[CV] ................................... C=100, kernel=linear -  11.9s
[CV] C=1, kernel=rbf, gamma=auto .....................................
[CV] ................................... C=100, kernel=linear -  12.8s
[CV] C=1, kernel=rbf, gamma=auto .....................................
[CV] .................................. C=1000, kernel=linear -  12.7s
[CV] C=1, kernel=rbf, gamma=auto .....................................
[CV] .................................. C=1000, kernel=linear -  12.7s
[CV] C=1, kernel=rbf, gamma=0.001 ....................................
[CV] .................................. C=1000, kernel=linear -  13.0s
[CV] C=1, kernel=rbf, gamma=0.001 ....................................
[CV] .................................. C=1000, kernel=linear -  13.1s
[CV] C=1, kernel=rbf, gamma=0.001 ....................................
[CV] ................................... C=100, kernel=linear -  14.0s
[CV] C=1, kernel=rbf, gamma=0.001 ....................................
[CV] ............................ C=1, kernel=rbf, gamma=auto -  19.3s
[CV] C=1, kernel=rbf, gamma=0.0001 ...................................
[CV] ............................ C=1, kernel=rbf, gamma=auto -  19.6s
[CV] C=1, kernel=rbf, gamma=0.0001 ...................................
[CV] ............................ C=1, kernel=rbf, gamma=auto -  19.4s
[CV] C=1, kernel=rbf, gamma=0.0001 ...................................
[CV] ............................ C=1, kernel=rbf, gamma=auto -  19.9s
[CV] C=1, kernel=rbf, gamma=0.0001 ...................................
[CV] ........................... C=1, kernel=rbf, gamma=0.001 -  20.2s
[CV] C=10, kernel=rbf, gamma=auto ....................................
[CV] ........................... C=1, kernel=rbf, gamma=0.001 -  21.0s
[CV] C=10, kernel=rbf, gamma=auto ....................................
[CV] ........................... C=1, kernel=rbf, gamma=0.001 -  21.2s
[CV] C=10, kernel=rbf, gamma=auto ....................................
[CV] ........................... C=1, kernel=rbf, gamma=0.001 -  21.6s
[CV] C=10, kernel=rbf, gamma=auto ....................................
[CV] ........................... C=10, kernel=rbf, gamma=auto -  17.2s
[CV] C=10, kernel=rbf, gamma=0.001 ...................................
[CV] ........................... C=10, kernel=rbf, gamma=auto -  16.3s
[CV] C=10, kernel=rbf, gamma=0.001 ...................................
[CV] ........................... C=10, kernel=rbf, gamma=auto -  18.2s
[CV] C=10, kernel=rbf, gamma=0.001 ...................................
[CV] ........................... C=10, kernel=rbf, gamma=auto -  18.1s
[CV] C=10, kernel=rbf, gamma=0.001 ...................................
[CV] .......................... C=1, kernel=rbf, gamma=0.0001 -  28.2s
[CV] C=10, kernel=rbf, gamma=0.0001 ..................................
[CV] .......................... C=1, kernel=rbf, gamma=0.0001 -  26.9s
[CV] C=10, kernel=rbf, gamma=0.0001 ..................................
[CV] .......................... C=1, kernel=rbf, gamma=0.0001 -  26.8s
[CV] C=10, kernel=rbf, gamma=0.0001 ..................................
[CV] .......................... C=1, kernel=rbf, gamma=0.0001 -  27.4s
[CV] C=10, kernel=rbf, gamma=0.0001 ..................................
[CV] ......................... C=10, kernel=rbf, gamma=0.0001 -  14.1s
[CV] C=100, kernel=rbf, gamma=auto ...................................
[CV] ......................... C=10, kernel=rbf, gamma=0.0001 -  14.1s
[CV] C=100, kernel=rbf, gamma=auto ...................................
[CV] .......................... C=10, kernel=rbf, gamma=0.001 -  19.8s
[CV] C=100, kernel=rbf, gamma=auto ...................................
[CV] .......................... C=10, kernel=rbf, gamma=0.001 -  21.7s
[CV] C=100, kernel=rbf, gamma=auto ...................................
[CV] .......................... C=10, kernel=rbf, gamma=0.001 -  19.8s
[CV] C=100, kernel=rbf, gamma=0.001 ..................................
[CV] ......................... C=10, kernel=rbf, gamma=0.0001 -  14.1s
[CV] C=100, kernel=rbf, gamma=0.001 ..................................
[CV] .......................... C=10, kernel=rbf, gamma=0.001 -  22.3s
[CV] C=100, kernel=rbf, gamma=0.001 ..................................
[CV] ......................... C=10, kernel=rbf, gamma=0.0001 -  16.3s
[CV] C=100, kernel=rbf, gamma=0.001 ..................................
[CV] .......................... C=100, kernel=rbf, gamma=auto -  17.2s
[CV] C=100, kernel=rbf, gamma=0.0001 .................................
[CV] .......................... C=100, kernel=rbf, gamma=auto -  17.8s
[CV] C=100, kernel=rbf, gamma=0.0001 .................................
[CV] .......................... C=100, kernel=rbf, gamma=auto -  17.0s
[CV] C=100, kernel=rbf, gamma=0.0001 .................................
[CV] .......................... C=100, kernel=rbf, gamma=auto -  18.4s
[CV] C=100, kernel=rbf, gamma=0.0001 .................................
[CV] ......................... C=100, kernel=rbf, gamma=0.001 -  18.8s
[CV] C=1000, kernel=rbf, gamma=auto ..................................
[CV] ......................... C=100, kernel=rbf, gamma=0.001 -  20.2s
[CV] C=1000, kernel=rbf, gamma=auto ..................................
[CV] ......................... C=100, kernel=rbf, gamma=0.001 -  21.0s
[CV] C=1000, kernel=rbf, gamma=auto ..................................
[CV] ......................... C=100, kernel=rbf, gamma=0.001 -  19.5s
[CV] C=1000, kernel=rbf, gamma=auto ..................................
[CV] ........................ C=100, kernel=rbf, gamma=0.0001 -  14.4s
[CV] C=1000, kernel=rbf, gamma=0.001 .................................
[CV] ........................ C=100, kernel=rbf, gamma=0.0001 -  13.9s
[CV] C=1000, kernel=rbf, gamma=0.001 .................................
[CV] ........................ C=100, kernel=rbf, gamma=0.0001 -  14.4s
[CV] C=1000, kernel=rbf, gamma=0.001 .................................
[CV] ........................ C=100, kernel=rbf, gamma=0.0001 -  13.2s
[CV] C=1000, kernel=rbf, gamma=0.001 .................................
[CV] ......................... C=1000, kernel=rbf, gamma=auto -  15.1s
[CV] C=1000, kernel=rbf, gamma=0.0001 ................................
[CV] ......................... C=1000, kernel=rbf, gamma=auto -  18.9s
[CV] C=1000, kernel=rbf, gamma=0.0001 ................................
[CV] ......................... C=1000, kernel=rbf, gamma=auto -  17.5s
[CV] C=1000, kernel=rbf, gamma=0.0001 ................................
[CV] ......................... C=1000, kernel=rbf, gamma=auto -  17.6s
[CV] C=1000, kernel=rbf, gamma=0.0001 ................................
[CV] ....................... C=1000, kernel=rbf, gamma=0.0001 -  13.4s
[CV] C=1, degree=2, kernel=poly ......................................
[CV] ........................ C=1000, kernel=rbf, gamma=0.001 -  19.8s
[CV] C=1, degree=2, kernel=poly ......................................
[CV] ........................ C=1000, kernel=rbf, gamma=0.001 -  20.1s
[CV] C=1, degree=2, kernel=poly ......................................
[CV] ........................ C=1000, kernel=rbf, gamma=0.001 -  20.7s
[CV] ........................ C=1000, kernel=rbf, gamma=0.001 -  21.1s
[CV] C=1, degree=2, kernel=poly ......................................
[CV] C=1, degree=3, kernel=poly ......................................
[CV] ....................... C=1000, kernel=rbf, gamma=0.0001 -  14.3s
[CV] C=1, degree=3, kernel=poly ......................................
[CV] ....................... C=1000, kernel=rbf, gamma=0.0001 -  12.3s
[CV] C=1, degree=3, kernel=poly ......................................
[CV] ....................... C=1000, kernel=rbf, gamma=0.0001 -  13.6s
[CV] C=1, degree=3, kernel=poly ......................................
[CV] ............................. C=1, degree=2, kernel=poly -  17.4s
[CV] C=1, degree=5, kernel=poly ......................................
[CV] ............................. C=1, degree=2, kernel=poly -  17.6s
[CV] C=1, degree=5, kernel=poly ......................................
[CV] ............................. C=1, degree=2, kernel=poly -  17.7s
[CV] C=1, degree=5, kernel=poly ......................................
[CV] ............................. C=1, degree=2, kernel=poly -  17.6s
[CV] C=1, degree=5, kernel=poly ......................................
[CV] ............................. C=1, degree=3, kernel=poly -  18.8s
[CV] C=1, degree=7, kernel=poly ......................................
[CV] ............................. C=1, degree=3, kernel=poly -  18.9s
[CV] C=1, degree=7, kernel=poly ......................................
[CV] ............................. C=1, degree=3, kernel=poly -  18.4s
[CV] C=1, degree=7, kernel=poly ......................................
[CV] ............................. C=1, degree=3, kernel=poly -  18.6s
[CV] C=1, degree=7, kernel=poly ......................................
[CV] ............................. C=1, degree=5, kernel=poly -  22.9s
[CV] C=1, degree=9, kernel=poly ......................................
[CV] ............................. C=1, degree=5, kernel=poly -  22.4s
[CV] C=1, degree=9, kernel=poly ......................................
[CV] ............................. C=1, degree=5, kernel=poly -  22.3s
[CV] C=1, degree=9, kernel=poly ......................................
[CV] ............................. C=1, degree=5, kernel=poly -  22.8s
[CV] C=1, degree=9, kernel=poly ......................................
[CV] ............................. C=1, degree=7, kernel=poly -  25.6s
[CV] C=1, degree=11, kernel=poly .....................................
[CV] ............................. C=1, degree=7, kernel=poly -  26.5s
[CV] C=1, degree=11, kernel=poly .....................................
[CV] ............................. C=1, degree=7, kernel=poly -  28.3s
[CV] C=1, degree=11, kernel=poly .....................................
[CV] ............................. C=1, degree=7, kernel=poly -  27.7s
[CV] C=1, degree=11, kernel=poly .....................................
[CV] ............................. C=1, degree=9, kernel=poly -  30.4s
[CV] C=1, degree=15, kernel=poly .....................................
[CV] ............................. C=1, degree=9, kernel=poly -  30.6s
[CV] C=1, degree=15, kernel=poly .....................................
[CV] ............................. C=1, degree=9, kernel=poly -  30.9s
[CV] C=1, degree=15, kernel=poly .....................................
[CV] ............................. C=1, degree=9, kernel=poly -  30.3s
[CV] C=1, degree=15, kernel=poly .....................................
[CV] ............................ C=1, degree=11, kernel=poly -  34.6s
[CV] C=10, degree=2, kernel=poly .....................................
[CV] ............................ C=1, degree=11, kernel=poly -  31.9s
[CV] C=10, degree=2, kernel=poly .....................................
[CV] ............................ C=1, degree=11, kernel=poly -  34.4s
[CV] C=10, degree=2, kernel=poly .....................................
[CV] ............................ C=1, degree=11, kernel=poly -  35.2s
[CV] C=10, degree=2, kernel=poly .....................................
[CV] ............................ C=10, degree=2, kernel=poly -  14.9s
[CV] C=10, degree=3, kernel=poly .....................................
[CV] ............................ C=10, degree=2, kernel=poly -  14.3s
[CV] C=10, degree=3, kernel=poly .....................................
[CV] ............................ C=10, degree=2, kernel=poly -  16.0s
[CV] C=10, degree=3, kernel=poly .....................................
[CV] ............................ C=10, degree=2, kernel=poly -  14.3s
[CV] C=10, degree=3, kernel=poly .....................................
[CV] ............................ C=1, degree=15, kernel=poly -  39.8s
[CV] C=10, degree=5, kernel=poly .....................................
[CV] ............................ C=1, degree=15, kernel=poly -  37.5s
[CV] C=10, degree=5, kernel=poly .....................................
[CV] ............................ C=1, degree=15, kernel=poly -  39.7s
[CV] C=10, degree=5, kernel=poly .....................................
[CV] ............................ C=1, degree=15, kernel=poly -  41.0s
[CV] C=10, degree=5, kernel=poly .....................................
[CV] ............................ C=10, degree=3, kernel=poly -  16.1s
[CV] C=10, degree=7, kernel=poly .....................................
[CV] ............................ C=10, degree=3, kernel=poly -  18.7s
[CV] C=10, degree=7, kernel=poly .....................................
[CV] ............................ C=10, degree=3, kernel=poly -  18.0s
[CV] C=10, degree=7, kernel=poly .....................................
[CV] ............................ C=10, degree=3, kernel=poly -  17.9s
[CV] C=10, degree=7, kernel=poly .....................................
[CV] ............................ C=10, degree=5, kernel=poly -  18.9s
[CV] C=10, degree=9, kernel=poly .....................................
[CV] ............................ C=10, degree=5, kernel=poly -  19.4s
[CV] C=10, degree=9, kernel=poly .....................................
[CV] ............................ C=10, degree=5, kernel=poly -  21.2s
[CV] C=10, degree=9, kernel=poly .....................................
[CV] ............................ C=10, degree=5, kernel=poly -  21.0s
[CV] C=10, degree=9, kernel=poly .....................................
[CV] ............................ C=10, degree=7, kernel=poly -  25.7s
[CV] C=10, degree=11, kernel=poly ....................................
[CV] ............................ C=10, degree=7, kernel=poly -  24.4s
[CV] C=10, degree=11, kernel=poly ....................................
[CV] ............................ C=10, degree=7, kernel=poly -  25.6s
[CV] C=10, degree=11, kernel=poly ....................................
[CV] ............................ C=10, degree=7, kernel=poly -  24.5s
[CV] C=10, degree=11, kernel=poly ....................................
[CV] ............................ C=10, degree=9, kernel=poly -  29.8s
[CV] C=10, degree=15, kernel=poly ....................................
[CV] ............................ C=10, degree=9, kernel=poly -  29.2s
[CV] C=10, degree=15, kernel=poly ....................................
[CV] ............................ C=10, degree=9, kernel=poly -  28.9s
[CV] C=10, degree=15, kernel=poly ....................................
[CV] ............................ C=10, degree=9, kernel=poly -  29.3s
[CV] C=10, degree=15, kernel=poly ....................................
[CV] ........................... C=10, degree=11, kernel=poly -  32.5s
[CV] C=100, degree=2, kernel=poly ....................................
[CV] ........................... C=10, degree=11, kernel=poly -  33.4s
[CV] C=100, degree=2, kernel=poly ....................................
[CV] ........................... C=10, degree=11, kernel=poly -  33.2s
[CV] C=100, degree=2, kernel=poly ....................................
[CV] ........................... C=10, degree=11, kernel=poly -  33.8s
[CV] C=100, degree=2, kernel=poly ....................................
[CV] ........................... C=100, degree=2, kernel=poly -  15.2s
[CV] C=100, degree=3, kernel=poly ....................................
[CV] ........................... C=100, degree=2, kernel=poly -  14.0s
[CV] C=100, degree=3, kernel=poly ....................................
[CV] ........................... C=100, degree=2, kernel=poly -  14.8s
[CV] C=100, degree=3, kernel=poly ....................................
[CV] ........................... C=100, degree=2, kernel=poly -  15.8s
[CV] C=100, degree=3, kernel=poly ....................................
[CV] ........................... C=10, degree=15, kernel=poly -  36.2s
[CV] C=100, degree=5, kernel=poly ....................................
[CV] ........................... C=10, degree=15, kernel=poly -  39.6s
[CV] C=100, degree=5, kernel=poly ....................................
[CV] ........................... C=10, degree=15, kernel=poly -  40.0s
[CV] C=100, degree=5, kernel=poly ....................................
[CV] ........................... C=10, degree=15, kernel=poly -  39.9s
[CV] C=100, degree=5, kernel=poly ....................................
[CV] ........................... C=100, degree=3, kernel=poly -  16.9s
[CV] C=100, degree=7, kernel=poly ....................................
[CV] ........................... C=100, degree=3, kernel=poly -  17.8s
[CV] C=100, degree=7, kernel=poly ....................................
[CV] ........................... C=100, degree=3, kernel=poly -  17.7s
[CV] C=100, degree=7, kernel=poly ....................................
[CV] ........................... C=100, degree=3, kernel=poly -  17.3s
[CV] C=100, degree=7, kernel=poly ....................................
[CV] ........................... C=100, degree=5, kernel=poly -  20.8s
[CV] C=100, degree=9, kernel=poly ....................................
[CV] ........................... C=100, degree=5, kernel=poly -  22.3s
[CV] C=100, degree=9, kernel=poly ....................................
[CV] ........................... C=100, degree=5, kernel=poly -  21.8s
[CV] C=100, degree=9, kernel=poly ....................................
[CV] ........................... C=100, degree=5, kernel=poly -  22.8s
[CV] C=100, degree=9, kernel=poly ....................................
[CV] ........................... C=100, degree=7, kernel=poly -  25.7s
[CV] C=100, degree=11, kernel=poly ...................................
[CV] ........................... C=100, degree=7, kernel=poly -  26.2s
[CV] C=100, degree=11, kernel=poly ...................................
[CV] ........................... C=100, degree=7, kernel=poly -  24.3s
[CV] C=100, degree=11, kernel=poly ...................................
[CV] ........................... C=100, degree=7, kernel=poly -  29.8s
[CV] C=100, degree=11, kernel=poly ...................................
[CV] ........................... C=100, degree=9, kernel=poly -  30.0s
[CV] C=100, degree=15, kernel=poly ...................................
[CV] ........................... C=100, degree=9, kernel=poly -  28.5s
[CV] C=100, degree=15, kernel=poly ...................................
[CV] ........................... C=100, degree=9, kernel=poly -  29.3s
[CV] C=100, degree=15, kernel=poly ...................................
[CV] ........................... C=100, degree=9, kernel=poly -  29.3s
[CV] C=100, degree=15, kernel=poly ...................................
[CV] .......................... C=100, degree=11, kernel=poly -  33.2s
[CV] C=1000, degree=2, kernel=poly ...................................
[CV] .......................... C=100, degree=11, kernel=poly -  33.4s
[CV] C=1000, degree=2, kernel=poly ...................................
[CV] .......................... C=100, degree=11, kernel=poly -  32.7s
[CV] C=1000, degree=2, kernel=poly ...................................
[CV] .......................... C=100, degree=11, kernel=poly -  33.8s
[CV] C=1000, degree=2, kernel=poly ...................................
[CV] .......................... C=1000, degree=2, kernel=poly -  15.6s
[CV] C=1000, degree=3, kernel=poly ...................................
[CV] .......................... C=1000, degree=2, kernel=poly -  14.1s
[CV] C=1000, degree=3, kernel=poly ...................................
[CV] .......................... C=1000, degree=2, kernel=poly -  15.9s
[CV] C=1000, degree=3, kernel=poly ...................................
[CV] .......................... C=1000, degree=2, kernel=poly -  14.2s
[CV] C=1000, degree=3, kernel=poly ...................................
[CV] .......................... C=100, degree=15, kernel=poly -  39.5s
[CV] C=1000, degree=5, kernel=poly ...................................
[CV] .......................... C=1000, degree=3, kernel=poly -   8.1s
[CV] C=1000, degree=5, kernel=poly ...................................
[CV] .......................... C=100, degree=15, kernel=poly -  39.8s
[CV] C=1000, degree=5, kernel=poly ...................................
[CV] .......................... C=100, degree=15, kernel=poly -  42.2s
[CV] C=1000, degree=5, kernel=poly ...................................
[CV] .......................... C=100, degree=15, kernel=poly -  41.8s
[CV] C=1000, degree=7, kernel=poly ...................................
[CV] .......................... C=1000, degree=3, kernel=poly -  15.5s
[CV] C=1000, degree=7, kernel=poly ...................................
[CV] .......................... C=1000, degree=3, kernel=poly -  18.1s
[CV] C=1000, degree=7, kernel=poly ...................................
[CV] .......................... C=1000, degree=3, kernel=poly -  19.7s
[CV] C=1000, degree=7, kernel=poly ...................................
[CV] .......................... C=1000, degree=5, kernel=poly -  21.8s
[CV] C=1000, degree=9, kernel=poly ...................................
[CV] .......................... C=1000, degree=5, kernel=poly -  21.8s
[CV] C=1000, degree=9, kernel=poly ...................................
[CV] .......................... C=1000, degree=5, kernel=poly -  20.8s
[CV] C=1000, degree=9, kernel=poly ...................................
[CV] .......................... C=1000, degree=5, kernel=poly -  20.8s
[CV] C=1000, degree=9, kernel=poly ...................................
[CV] .......................... C=1000, degree=7, kernel=poly -  22.0s
[CV] C=1000, degree=11, kernel=poly ..................................
[CV] .......................... C=1000, degree=7, kernel=poly -  24.8s
[CV] C=1000, degree=11, kernel=poly ..................................
[CV] .......................... C=1000, degree=7, kernel=poly -  25.3s
[CV] C=1000, degree=11, kernel=poly ..................................
[CV] .......................... C=1000, degree=7, kernel=poly -  25.0s
[CV] C=1000, degree=11, kernel=poly ..................................
[CV] .......................... C=1000, degree=9, kernel=poly -  29.4s
[CV] C=1000, degree=15, kernel=poly ..................................
[CV] .......................... C=1000, degree=9, kernel=poly -  28.5s
[CV] C=1000, degree=15, kernel=poly ..................................
[CV] .......................... C=1000, degree=9, kernel=poly -  28.0s
[CV] C=1000, degree=15, kernel=poly ..................................
[CV] .......................... C=1000, degree=9, kernel=poly -  31.3s
[CV] C=1000, degree=15, kernel=poly ..................................
[CV] ......................... C=1000, degree=11, kernel=poly -  31.5s
[CV] ......................... C=1000, degree=11, kernel=poly -  33.0s
[CV] ......................... C=1000, degree=11, kernel=poly -  32.0s
[CV] ......................... C=1000, degree=11, kernel=poly -  31.2s
[CV] ......................... C=1000, degree=15, kernel=poly -  23.9s
[CV] ......................... C=1000, degree=15, kernel=poly -  17.1s
[CV] ......................... C=1000, degree=15, kernel=poly -  24.4s
[CV] ......................... C=1000, degree=15, kernel=poly -  25.6s
Best parameters set found on development set:

{'C': 10, 'kernel': 'rbf', 'gamma': 0.001}
Grid scores on development set:

0.895 (+/- 0.018) for {'C': 1, 'kernel': 'linear'}
0.895 (+/- 0.018) for {'C': 10, 'kernel': 'linear'}
0.895 (+/- 0.018) for {'C': 100, 'kernel': 'linear'}
0.895 (+/- 0.018) for {'C': 1000, 'kernel': 'linear'}
0.917 (+/- 0.020) for {'C': 1, 'kernel': 'rbf', 'gamma': 'auto'}
0.920 (+/- 0.015) for {'C': 1, 'kernel': 'rbf', 'gamma': 0.001}
0.888 (+/- 0.014) for {'C': 1, 'kernel': 'rbf', 'gamma': 0.0001}
0.912 (+/- 0.005) for {'C': 10, 'kernel': 'rbf', 'gamma': 'auto'}
0.921 (+/- 0.010) for {'C': 10, 'kernel': 'rbf', 'gamma': 0.001}
0.907 (+/- 0.021) for {'C': 10, 'kernel': 'rbf', 'gamma': 0.0001}
0.912 (+/- 0.004) for {'C': 100, 'kernel': 'rbf', 'gamma': 'auto'}
0.921 (+/- 0.010) for {'C': 100, 'kernel': 'rbf', 'gamma': 0.001}
0.903 (+/- 0.021) for {'C': 100, 'kernel': 'rbf', 'gamma': 0.0001}
0.912 (+/- 0.004) for {'C': 1000, 'kernel': 'rbf', 'gamma': 'auto'}
0.921 (+/- 0.010) for {'C': 1000, 'kernel': 'rbf', 'gamma': 0.001}
0.903 (+/- 0.020) for {'C': 1000, 'kernel': 'rbf', 'gamma': 0.0001}
0.912 (+/- 0.032) for {'C': 1, 'degree': 2, 'kernel': 'poly'}
0.914 (+/- 0.028) for {'C': 1, 'degree': 3, 'kernel': 'poly'}
0.899 (+/- 0.024) for {'C': 1, 'degree': 5, 'kernel': 'poly'}
0.839 (+/- 0.031) for {'C': 1, 'degree': 7, 'kernel': 'poly'}
0.734 (+/- 0.026) for {'C': 1, 'degree': 9, 'kernel': 'poly'}
0.598 (+/- 0.030) for {'C': 1, 'degree': 11, 'kernel': 'poly'}
0.392 (+/- 0.046) for {'C': 1, 'degree': 15, 'kernel': 'poly'}
0.908 (+/- 0.010) for {'C': 10, 'degree': 2, 'kernel': 'poly'}
0.917 (+/- 0.008) for {'C': 10, 'degree': 3, 'kernel': 'poly'}
0.915 (+/- 0.011) for {'C': 10, 'degree': 5, 'kernel': 'poly'}
0.892 (+/- 0.011) for {'C': 10, 'degree': 7, 'kernel': 'poly'}
0.843 (+/- 0.017) for {'C': 10, 'degree': 9, 'kernel': 'poly'}
0.756 (+/- 0.034) for {'C': 10, 'degree': 11, 'kernel': 'poly'}
0.539 (+/- 0.021) for {'C': 10, 'degree': 15, 'kernel': 'poly'}
0.909 (+/- 0.010) for {'C': 100, 'degree': 2, 'kernel': 'poly'}
0.917 (+/- 0.008) for {'C': 100, 'degree': 3, 'kernel': 'poly'}
0.914 (+/- 0.009) for {'C': 100, 'degree': 5, 'kernel': 'poly'}
0.898 (+/- 0.007) for {'C': 100, 'degree': 7, 'kernel': 'poly'}
0.851 (+/- 0.018) for {'C': 100, 'degree': 9, 'kernel': 'poly'}
0.792 (+/- 0.030) for {'C': 100, 'degree': 11, 'kernel': 'poly'}
0.600 (+/- 0.030) for {'C': 100, 'degree': 15, 'kernel': 'poly'}
0.909 (+/- 0.010) for {'C': 1000, 'degree': 2, 'kernel': 'poly'}
0.917 (+/- 0.008) for {'C': 1000, 'degree': 3, 'kernel': 'poly'}
0.914 (+/- 0.009) for {'C': 1000, 'degree': 5, 'kernel': 'poly'}
0.898 (+/- 0.007) for {'C': 1000, 'degree': 7, 'kernel': 'poly'}
0.851 (+/- 0.018) for {'C': 1000, 'degree': 9, 'kernel': 'poly'}
0.798 (+/- 0.026) for {'C': 1000, 'degree': 11, 'kernel': 'poly'}
0.610 (+/- 0.024) for {'C': 1000, 'degree': 15, 'kernel': 'poly'}

Detailed classification report:

The model is trained on the full development set.
The scores are computed on the full evaluation set.

             precision    recall  f1-score   support

          0       0.95      0.98      0.97       308
          1       0.98      0.98      0.98       369
          2       0.95      0.92      0.93       361
          3       0.92      0.94      0.93       366
          4       0.93      0.90      0.91       322
          5       0.93      0.93      0.93       294
          6       0.95      0.95      0.95       369
          7       0.93      0.92      0.93       306
          8       0.92      0.91      0.92       305
          9       0.88      0.90      0.89       334

avg / total       0.93      0.93      0.93      3334

Only testing, remove these lines to train/predict on the all dataset ...
